PBL1/simulation/qsim/pbl1.msim.vcd
$comment
	File created using the following command:
		vcd file pbl1.msim.vcd -direction
$end
$date
	Sat Mar 18 15:54:29 2023
$end
$version
	ModelSim Version 10.5b
$end
$timescale
	1ps
$end

$scope module main_vlg_vec_tst $end
$var reg 1 ! CH0 $end
$var reg 1 " CH1 $end
$var reg 1 # CH2 $end
$var reg 1 $ CH3 $end
$var reg 1 % CH4 $end
$var reg 1 & CH5 $end
$var reg 1 ' CH6 $end
$var reg 1 ( CH7 $end
$var wire 1 ) dig1 $end
$var wire 1 * dig2 $end
$var wire 1 + dig3 $end
$var wire 1 , dig4 $end
$var wire 1 - matriz_C [4] $end
$var wire 1 . matriz_C [3] $end
$var wire 1 / matriz_C [2] $end
$var wire 1 0 matriz_C [1] $end
$var wire 1 1 matriz_C [0] $end
$var wire 1 2 matriz_L [6] $end
$var wire 1 3 matriz_L [5] $end
$var wire 1 4 matriz_L [4] $end
$var wire 1 5 matriz_L [3] $end
$var wire 1 6 matriz_L [2] $end
$var wire 1 7 matriz_L [1] $end
$var wire 1 8 matriz_L [0] $end
$var wire 1 9 ponto $end
$var wire 1 : segA $end
$var wire 1 ; segB $end
$var wire 1 < segC $end
$var wire 1 = segD $end
$var wire 1 > segE $end
$var wire 1 ? segF $end
$var wire 1 @ segG $end

$scope module i1 $end
$var wire 1 A gnd $end
$var wire 1 B vcc $end
$var wire 1 C unknown $end
$var tri1 1 D devclrn $end
$var tri1 1 E devpor $end
$var tri1 1 F devoe $end
$var wire 1 G CH0~combout $end
$var wire 1 H CH4~combout $end
$var wire 1 I CH6~combout $end
$var wire 1 J CH7~combout $end
$var wire 1 K CH5~combout $end
$var wire 1 L comb_8|soma1|Or0~0_combout $end
$var wire 1 M comb_8|soma1|Xor1~0_combout $end
$var wire 1 N CH3~combout $end
$var wire 1 O comb_8|soma4|Or0~0_combout $end
$var wire 1 P comb_8|WideNand0~0_combout $end
$var wire 1 Q comb_8|WideNand0~combout $end
$var wire 1 R CH2~combout $end
$var wire 1 S CH1~combout $end
$var wire 1 T comb_12|WideOr0~combout $end
$var wire 1 U comb_12|WideOr1~combout $end
$var wire 1 V comb_12|WideOr2~combout $end
$var wire 1 W comb_12|WideOr3~combout $end
$var wire 1 X comb_12|WideOr4~combout $end
$var wire 1 Y comb_12|WideOr5~combout $end
$var wire 1 Z comb_12|WideOr6~combout $end
$var wire 1 [ comb_9|WideOr0~0_combout $end
$var wire 1 \ comb_9|WideAnd4~0_combout $end
$var wire 1 ] comb_9|WideAnd1~0_combout $end
$var wire 1 ^ comb_9|WideAnd1~combout $end
$var wire 1 _ comb_9|sA~combout $end
$var wire 1 ` comb_9|WideOr0~1_combout $end
$var wire 1 a comb_9|WideOr0~2_combout $end
$var wire 1 b comb_9|WideAnd2~0_combout $end
$var wire 1 c comb_9|sC~combout $end
$var wire 1 d comb_9|WideOr1~4_combout $end
$var wire 1 e comb_9|WideOr1~5_combout $end
$var wire 1 f comb_9|WideOr1~combout $end
$var wire 1 g comb_9|WideOr2~0_combout $end
$var wire 1 h comb_9|WideAnd0~0_combout $end
$var wire 1 i comb_9|WideOr1~6_combout $end
$var wire 1 j comb_9|WideOr2~1_combout $end
$var wire 1 k comb_9|WideOr3~0_combout $end
$var wire 1 l comb_9|WideOr4~combout $end
$var wire 1 m on_off~combout $end
$upscope $end
$upscope $end
$enddefinitions $end
#0
$dumpvars
0!
0"
0#
0$
0%
0&
0'
0(
1)
1*
1+
0,
01
00
0/
0.
0-
18
17
16
15
14
13
12
19
0:
1;
1<
1=
0>
0?
0@
0A
1B
xC
1D
1E
1F
0G
0H
0I
0J
0K
0L
0M
0N
0O
0P
0Q
0R
0S
1T
1U
1V
1W
1X
1Y
1Z
0[
0\
0]
0^
0_
0`
1a
0b
1c
1d
1e
1f
0g
0h
1i
0j
0k
0l
1m
$end
#10000
1!
1G
#20000
1"
0!
1S
0G
#30000
1!
1G
#40000
1#
0"
0!
1R
0S
0G
#50000
1!
1G
#60000
1"
0!
1S
0G
#70000
1!
1G
#80000
1$
0#
0"
0!
1N
0R
0S
0G
1g
0e
1-
#90000
1!
1G
#100000
1"
0!
1S
0G
#110000
1!
1G
#120000
1#
0"
0!
1R
0S
0G
#130000
1!
1G
#140000
1"
0!
1S
0G
#150000
1!
1G
#160000
1%
0$
0#
0"
0!
1H
0N
0R
0S
0G
1j
1[
0g
1.
0-
0j
1>
0>
#170000
1!
1G
#180000
1"
0!
1S
0G
#190000
1!
1G
#200000
1#
0"
0!
1R
0S
0G
#210000
1!
1G
#220000
1"
0!
1S
0G
#230000
1!
1G
#240000
1$
0#
0"
0!
1N
0R
0S
0G
1g
1e
0d
1P
1-
1j
0f
0a
1Q
0c
1>
0=
0;
0<
#250000
1!
1G
0m
0T
08
1,
#260000
1"
0!
1S
0G
0U
1T
07
18
#270000
1!
1G
0V
1U
06
17
#280000
1#
0"
0!
1R
0S
0G
0W
1V
05
16
#290000
1!
1G
0X
1W
04
15
#300000
1"
0!
1S
0G
0Y
1X
03
14
#310000
1!
1G
0Z
1Y
02
13
#320000
1&
0%
0$
0#
0"
0!
1K
0H
0N
0R
0S
0G
1f
1M
0j
1d
0[
0P
1m
1Z
1/
0.
0-
1a
0Q
1=
0>
12
0,
1c
1;
1<
#330000
1!
1G
#340000
1"
0!
1S
0G
#350000
1!
1G
#360000
1#
0"
0!
1R
0S
0G
#370000
1!
1G
#380000
1"
0!
1S
0G
#390000
1!
1G
#400000
1$
0#
0"
0!
1N
0R
0S
0G
0g
0e
1P
1-
0f
0a
1Q
0c
0=
0;
0<
#410000
1!
1G
0m
0T
08
1,
#420000
1"
0!
1S
0G
0U
1T
07
18
#430000
1!
1G
0V
1U
06
17
#440000
1#
0"
0!
1R
0S
0G
0W
1V
05
16
#450000
1!
1G
0X
1W
04
15
#460000
1"
0!
1S
0G
0Y
1X
03
14
#470000
1!
1G
0Z
1Y
02
13
#480000
1%
0$
0#
0"
0!
1H
0N
0R
0S
0G
1`
1[
1g
1m
1Z
1.
0-
1a
1j
12
0,
1;
1>
#490000
1!
1G
0m
0T
08
1,
#500000
1"
0!
1S
0G
0U
1T
07
18
#510000
1!
1G
0V
1U
06
17
#520000
1#
0"
0!
1R
0S
0G
0W
1V
05
16
#530000
1!
1G
0X
1W
04
15
#540000
1"
0!
1S
0G
0Y
1X
03
14
#550000
1!
1G
0Z
1Y
02
13
#560000
1$
0#
0"
0!
1N
0R
0S
0G
0g
1e
0d
0`
0P
1m
1Z
1-
0j
1f
0Q
12
0,
1c
0>
1=
1<
#570000
1!
1G
#580000
1"
0!
1S
0G
#590000
1!
1G
#600000
1#
0"
0!
1R
0S
0G
#610000
1!
1G
#620000
1"
0!
1S
0G
#630000
1!
1G
#640000
1'
0&
0%
0$
0#
0"
0!
1I
0K
0H
0N
0R
0S
0G
1h
0e
1d
1\
0f
0[
10
0/
0.
0-
1f
1j
1_
0\
0=
0j
0_
1=
1>
1:
0>
0:
#650000
1!
1G
#660000
1"
0!
1S
0G
#670000
1!
1G
#680000
1#
0"
0!
1R
0S
0G
#690000
1!
1G
#700000
1"
0!
1S
0G
#710000
1!
1G
#720000
1$
0#
0"
0!
1N
0R
0S
0G
1l
0i
1e
1P
1-
1k
1j
0a
1Q
1@
0c
1?
1>
0;
0<
#730000
1!
1G
0m
0T
08
1,
#740000
1"
0!
1S
0G
0U
1T
07
18
#750000
1!
1G
0V
1U
06
17
#760000
1#
0"
0!
1R
0S
0G
0W
1V
05
16
#770000
1!
1G
0X
1W
04
15
#780000
1"
0!
1S
0G
0Y
1X
03
14
#790000
1!
1G
0Z
1Y
02
13
#800000
1%
0$
0#
0"
0!
1H
0N
0R
0S
0G
0h
1[
0l
1i
1m
1Z
1.
0-
1\
0k
0j
0@
12
0,
1j
1_
0?
0>
1>
1:
#810000
1!
1G
0m
0T
08
1,
#820000
1"
0!
1S
0G
0U
1T
07
18
#830000
1!
1G
0V
1U
06
17
#840000
1#
0"
0!
1R
0S
0G
0W
1V
05
16
#850000
1!
1G
0X
1W
04
15
#860000
1"
0!
1S
0G
0Y
1X
03
14
#870000
1!
1G
0Z
1Y
02
13
#880000
1$
0#
0"
0!
1N
0R
0S
0G
0\
0P
1m
1Z
1-
0j
0_
1a
0Q
12
0,
1c
0>
0:
1;
1<
#890000
1!
1G
#900000
1"
0!
1S
0G
#910000
1!
1G
#920000
1#
0"
0!
1R
0S
0G
#930000
1!
1G
#940000
1"
0!
1S
0G
#950000
1!
1G
#960000
1&
0%
0$
0#
0"
0!
1K
0H
0N
0R
0S
0G
0M
1L
1h
0e
0[
1/
0.
0-
1P
1l
0f
0a
1Q
1@
0=
0c
0;
0<
#970000
1!
1G
0m
0T
08
1,
#980000
1"
0!
1S
0G
0U
1T
07
18
#990000
1!
1G
0V
1U
06
17
#1000000
1#
0"
0!
1R
0S
0G
0W
1V
05
16
#1010000
1!
1G
0X
1W
04
15
#1020000
1"
0!
1S
0G
0Y
1X
03
14
#1030000
1!
1G
0Z
1Y
02
13
#1040000
1$
0#
0"
0!
1N
0R
0S
0G
0l
1e
0P
1m
1Z
1-
1f
1a
0Q
0@
12
0,
1c
1=
1;
1<
#1050000
1!
1G
#1060000
1"
0!
1S
0G
#1070000
1!
1G
#1080000
1#
0"
0!
1R
0S
0G
#1090000
1!
1G
#1100000
1"
0!
1S
0G
#1110000
1!
1G
#1120000
1%
0$
0#
0"
0!
1H
0N
0R
0S
0G
0h
1`
1[
1l
1.
0-
0l
1@
0@
#1130000
1!
1G
#1140000
1"
0!
1S
0G
#1150000
1!
1G
#1160000
1#
0"
0!
1R
0S
0G
#1170000
1!
1G
#1180000
1"
0!
1S
0G
#1190000
1!
1G
#1200000
1$
0#
0"
0!
1N
0R
0S
0G
0`
1O
1-
#1210000
1!
1G
#1220000
1"
0!
1S
0G
#1230000
1!
1G
#1240000
1#
0"
0!
1R
0S
0G
#1250000
1!
1G
#1260000
1"
0!
1S
0G
#1270000
1!
1G
#1280000
1(
0'
0&
0%
0$
0#
0"
0!
1J
0I
0K
0H
0N
0R
0S
0G
1g
0e
1b
1]
0[
1M
0L
1P
0O
11
00
0/
0.
0-
0P
0a
1Q
1a
0Q
0c
0;
1c
1;
0<
1<
#1290000
1!
1G
#1300000
1"
0!
1S
0G
#1310000
1!
1G
#1320000
1#
0"
0!
1R
0S
0G
#1330000
1!
1G
#1340000
1"
0!
1S
0G
#1350000
1!
1G
#1360000
1$
0#
0"
0!
1N
0R
0S
0G
0g
1e
0d
0b
1`
0]
1P
1-
0f
1Q
0c
0=
0<
#1370000
1!
1G
0m
0T
08
1,
#1380000
1"
0!
1S
0G
0U
1T
07
18
#1390000
1!
1G
0V
1U
06
17
#1400000
1#
0"
0!
1R
0S
0G
0W
1V
05
16
#1410000
1!
1G
0X
1W
04
15
#1420000
1"
0!
1S
0G
0Y
1X
03
14
#1430000
1!
1G
0Z
1Y
02
13
#1440000
1%
0$
0#
0"
0!
1H
0N
0R
0S
0G
0`
1g
1b
1]
1m
1Z
1.
0-
0a
1j
1k
12
0,
0;
1>
1?
#1450000
1!
1G
0m
0T
08
1,
#1460000
1"
0!
1S
0G
0U
1T
07
18
#1470000
1!
1G
0V
1U
06
17
#1480000
1#
0"
0!
1R
0S
0G
0W
1V
05
16
#1490000
1!
1G
0X
1W
04
15
#1500000
1"
0!
1S
0G
0Y
1X
03
14
#1510000
1!
1G
0Z
1Y
02
13
#1520000
1$
0#
0"
0!
1N
0R
0S
0G
0g
1d
0b
0]
0P
1m
1Z
1-
0j
1f
0k
1a
0Q
12
0,
1c
0>
1=
0?
1;
1<
#1530000
1!
1G
#1540000
1"
0!
1S
0G
#1550000
1!
1G
#1560000
1#
0"
0!
1R
0S
0G
#1570000
1!
1G
#1580000
1"
0!
1S
0G
#1590000
1!
1G
#1600000
1&
0%
0$
0#
0"
0!
1K
0H
0N
0R
0S
0G
0M
1L
0e
1b
1]
1/
0.
0-
1P
0f
1k
0a
1Q
0=
1?
0;
#1610000
1!
1G
0m
0T
08
1,
#1620000
1"
0!
1S
0G
0U
1T
07
18
#1630000
1!
1G
0V
1U
06
17
#1640000
1#
0"
0!
1R
0S
0G
0W
1V
05
16
#1650000
1!
1G
0X
1W
04
15
#1660000
1"
0!
1S
0G
0Y
1X
03
14
#1670000
1!
1G
0Z
1Y
02
13
#1680000
1$
0#
0"
0!
1N
0R
0S
0G
1e
0d
0b
0]
0P
1m
1Z
1-
1f
0k
0c
1a
0Q
12
0,
1c
1=
0?
0<
1;
1<
#1690000
1!
1G
#1700000
1"
0!
1S
0G
#1710000
1!
1G
#1720000
1#
0"
0!
1R
0S
0G
#1730000
1!
1G
#1740000
1"
0!
1S
0G
#1750000
1!
1G
#1760000
1%
0$
0#
0"
0!
1H
0N
0R
0S
0G
1b
1]
1.
0-
#1770000
1!
1G
#1780000
1"
0!
1S
0G
#1790000
1!
1G
#1800000
1#
0"
0!
1R
0S
0G
#1810000
1!
1G
#1820000
1"
0!
1S
0G
#1830000
1!
1G
#1840000
1$
0#
0"
0!
1N
0R
0S
0G
1d
0b
0]
1O
1-
#1850000
1!
1G
#1860000
1"
0!
1S
0G
#1870000
1!
1G
#1880000
1#
0"
0!
1R
0S
0G
#1890000
1!
1G
#1900000
1"
0!
1S
0G
#1910000
1!
1G
#1920000
1'
0&
0%
0$
0#
0"
0!
1I
0K
0H
0N
0R
0S
0G
1P
0O
1]
10
0/
0.
0-
0a
1Q
1^
0c
1l
0i
1_
0;
1k
1j
0<
1@
1:
1?
1>
#1930000
1!
1G
0m
0T
08
1,
#1940000
1"
0!
1S
0G
0U
1T
07
18
#1950000
1!
1G
0V
1U
06
17
#1960000
1#
0"
0!
1R
0S
0G
0W
1V
05
16
#1970000
1!
1G
0X
1W
04
15
#1980000
1"
0!
1S
0G
0Y
1X
03
14
#1990000
1!
1G
0Z
1Y
02
13
#2000000
1$
0#
0"
0!
1N
0R
0S
0G
1`
0]
0P
1m
1Z
1-
1a
0^
0Q
12
0,
0l
1i
0_
1c
1;
0k
0j
0@
0:
1<
0?
0>
#2010000
1!
1G
#2020000
1"
0!
1S
0G
#2030000
1!
1G
#2040000
1#
0"
0!
1R
0S
0G
#2050000
1!
1G
#2060000
1"
0!
1S
0G
#2070000
1!
1G
#2080000
1%
0$
0#
0"
0!
1H
0N
0R
0S
0G
0`
1]
1.
0-
#2090000
1!
1G
#2100000
1"
0!
1S
0G
#2110000
1!
1G
#2120000
1#
0"
0!
1R
0S
0G
#2130000
1!
1G
#2140000
1"
0!
1S
0G
#2150000
1!
1G
#2160000
1$
0#
0"
0!
1N
0R
0S
0G
0]
1O
1-
#2170000
1!
1G
#2180000
1"
0!
1S
0G
#2190000
1!
1G
#2200000
1#
0"
0!
1R
0S
0G
#2210000
1!
1G
#2220000
1"
0!
1S
0G
#2230000
1!
1G
#2240000
1&
0%
0$
0#
0"
0!
1K
0H
0N
0R
0S
0G
1M
1P
0O
1]
1/
0.
0-
0P
0a
1Q
1a
0Q
0c
0;
1c
1;
0<
1<
#2250000
1!
1G
#2260000
1"
0!
1S
0G
#2270000
1!
1G
#2280000
1#
0"
0!
1R
0S
0G
#2290000
1!
1G
#2300000
1"
0!
1S
0G
#2310000
1!
1G
#2320000
1$
0#
0"
0!
1N
0R
0S
0G
0]
1O
1-
#2330000
1!
1G
#2340000
1"
0!
1S
0G
#2350000
1!
1G
#2360000
1#
0"
0!
1R
0S
0G
#2370000
1!
1G
#2380000
1"
0!
1S
0G
#2390000
1!
1G
#2400000
1%
0$
0#
0"
0!
1H
0N
0R
0S
0G
1]
1.
0-
#2410000
1!
1G
#2420000
1"
0!
1S
0G
#2430000
1!
1G
#2440000
1#
0"
0!
1R
0S
0G
#2450000
1!
1G
#2460000
1"
0!
1S
0G
#2470000
1!
1G
#2480000
1$
0#
0"
0!
1N
0R
0S
0G
0]
1-
#2490000
1!
1G
#2500000
1"
0!
1S
0G
#2510000
1!
1G
#2520000
1#
0"
0!
1R
0S
0G
#2530000
1!
1G
#2540000
1"
0!
1S
0G
#2550000
1!
1G
